\BOOKMARK [0][-]{chapter.1}{Εισαγωγή}{}% 1
\BOOKMARK [1][-]{section.1.1}{Εισαγωγικές έννοιες και βοηθητικοί ορισμοί}{chapter.1}% 2
\BOOKMARK [1][-]{section.1.2}{Εισαγωγή στο δενδροπλάτος}{chapter.1}% 3
\BOOKMARK [0][-]{chapter.2}{Δενδροπλάτος και η σχέση του με άλλες παράμετρους}{}% 4
\BOOKMARK [1][-]{section.2.1}{Δενδροπλάτος}{chapter.2}% 5
\BOOKMARK [1][-]{section.2.2}{Partial\040k-trees}{chapter.2}% 6
\BOOKMARK [1][-]{section.2.3}{Chordal\040graphs}{chapter.2}% 7
\BOOKMARK [2][-]{subsection.2.3.1}{Intersection γραφήματα και Clique trees}{section.2.3}% 8
\BOOKMARK [2][-]{subsection.2.3.2}{Σχέσεις μεταξύ των chordal γραφημάτων και του δενδροπλάτους}{section.2.3}% 9
\BOOKMARK [1][-]{section.2.4}{Elimination\040Game}{chapter.2}% 10
\BOOKMARK [1][-]{section.2.5}{Διαχωριστής}{chapter.2}% 11
\BOOKMARK [0][-]{chapter.3}{Αλγόριθμοι για το δενδροπλάτος}{}% 12
\BOOKMARK [1][-]{section.3.1}{Εισαγωγή στους προσεγγιστικούς αλγορίθμους}{chapter.3}% 13
\BOOKMARK [1][-]{section.3.2}{Πολυωνυμικός προσεγγιστικός αλγόριθμος}{chapter.3}% 14
\BOOKMARK [1][-]{section.3.3}{FPT προσεγγιστικός αλγόριθμος}{chapter.3}% 15
\BOOKMARK [1][-]{section.3.4}{Περισσότεροι αλγόριθμοι για το δενδροπλάτος}{chapter.3}% 16
