\relax 
\providecommand\hyper@newdestlabel[2]{}
\providecommand\HyperFirstAtBeginDocument{\AtBeginDocument}
\HyperFirstAtBeginDocument{\ifx\hyper@anchor\@undefined
\global\let\oldcontentsline\contentsline
\gdef\contentsline#1#2#3#4{\oldcontentsline{#1}{#2}{#3}}
\global\let\oldnewlabel\newlabel
\gdef\newlabel#1#2{\newlabelxx{#1}#2}
\gdef\newlabelxx#1#2#3#4#5#6{\oldnewlabel{#1}{{#2}{#3}}}
\AtEndDocument{\ifx\hyper@anchor\@undefined
\let\contentsline\oldcontentsline
\let\newlabel\oldnewlabel
\fi}
\fi}
\global\let\hyper@last\relax 
\gdef\HyperFirstAtBeginDocument#1{#1}
\providecommand*\HyPL@Entry[1]{}
\HyPL@Entry{0<</S/D>>}
\select@language{english}
\@writefile{toc}{\select@language{english}}
\@writefile{lof}{\select@language{english}}
\@writefile{lot}{\select@language{english}}
\HyPL@Entry{1<</S/D>>}
\select@language{greek}
\@writefile{toc}{\select@language{greek}}
\@writefile{lof}{\select@language{greek}}
\@writefile{lot}{\select@language{greek}}
\@writefile{toc}{\contentsline {chapter}{\numberline {1}Εισαγωγή}{2}{chapter.1}}
\@writefile{lof}{\addvspace {10\p@ }}
\@writefile{lot}{\addvspace {10\p@ }}
\@writefile{toc}{\contentsline {section}{\numberline {1.1}Εισαγωγικές έννοιες και βοηθητικοί ορισμοί}{2}{section.1.1}}
\citation{paper8}
\@writefile{toc}{\contentsline {section}{\numberline {1.2}Εισαγωγή στο δενδροπλάτος}{4}{section.1.2}}
\citation{paper10}
\citation{paper9}
\@writefile{toc}{\contentsline {chapter}{\numberline {2}Δενδροπλάτος και η σχέση του με άλλες παράμετρους}{7}{chapter.2}}
\@writefile{lof}{\addvspace {10\p@ }}
\@writefile{lot}{\addvspace {10\p@ }}
\@writefile{toc}{\contentsline {section}{\numberline {2.1}Δενδροπλάτος}{7}{section.2.1}}
\citation{paper11}
\@writefile{lof}{\contentsline {figure}{\numberline {2.1}{\ignorespaces Από πάνω φαίνεται ένα γράφημα $G$ και από κάτω μια δενδροαποσύνθεσή του με $tw(G) = 2$.}}{8}{figure.2.1}}
\newlabel{fig:example}{{2.1}{8}{Από πάνω φαίνεται ένα γράφημα $G$ και από κάτω μια δενδροαποσύνθεσή του με $tw(G) = 2$}{figure.2.1}{}}
\citation{paper14}
\citation{paper14}
\@writefile{toc}{\contentsline {section}{\numberline {2.2}Partial $k$-trees}{10}{section.2.2}}
\@writefile{lof}{\contentsline {figure}{\numberline {2.2}{\ignorespaces Από πάνω φαίνεται ένα γράφημα $3$-tree και από κάτω μια δενδροαποσύνθεσή του με $tw(G) = 3$. Όταν εισάγουμε την καινούργια κορυφή $f$ θα πρέπει να την ενώσουμε με τρεις άλλες κορυφές που μεταξύ τους δημιουργούν κλίκα. Για παράδειγμα θα ήταν λάθος αν ενώναμε την $f$ με τις κορυφές $a$, $b$, $e$ αφού δεν σχηματίζουν μία κλίκα μεταξύ τους.}}{10}{figure.2.2}}
\newlabel{fig:example}{{2.2}{10}{Από πάνω φαίνεται ένα γράφημα $3$-tree και από κάτω μια δενδροαποσύνθεσή του με $tw(G) = 3$. Όταν εισάγουμε την καινούργια κορυφή $f$ θα πρέπει να την ενώσουμε με τρεις άλλες κορυφές που μεταξύ τους δημιουργούν κλίκα. Για παράδειγμα θα ήταν λάθος αν ενώναμε την $f$ με τις κορυφές $a$, $b$, $e$ αφού δεν σχηματίζουν μία κλίκα μεταξύ τους}{figure.2.2}{}}
\citation{paper2}
\citation{paper6}
\@writefile{toc}{\contentsline {section}{\numberline {2.3}Chordal graphs}{11}{section.2.3}}
\citation{paper2}
\citation{paper15}
\citation{paper2}
\@writefile{lof}{\contentsline {figure}{\numberline {2.3}{\ignorespaces Στα αριστερά είναι ένα γράφημα που δεν είναι chordal γιατί περιέχει εναγόμενο κύκλο($a, b, c, e$) μεγαλύτερο του $3$ και στα δεξιά φαίνεται ένα γράφημα που είναι chordal προσθέτοντας στο αριστερό γράφημα την κόκκινη χορδή.}}{12}{figure.2.3}}
\newlabel{fig:example}{{2.3}{12}{Στα αριστερά είναι ένα γράφημα που δεν είναι chordal γιατί περιέχει εναγόμενο κύκλο($a, b, c, e$) μεγαλύτερο του $3$ και στα δεξιά φαίνεται ένα γράφημα που είναι chordal προσθέτοντας στο αριστερό γράφημα την κόκκινη χορδή}{figure.2.3}{}}
\citation{paper2}
\citation{paper15}
\@writefile{lof}{\contentsline {figure}{\numberline {2.4}{\ignorespaces Η παραπάνω διάταξη είναι ένα perfect elimination ordering του chordal γραφήματος(στα δεξιά) από το Σχήμα 2.3.}}{13}{figure.2.4}}
\newlabel{fig:example}{{2.4}{13}{Η παραπάνω διάταξη είναι ένα perfect elimination ordering του chordal γραφήματος(στα δεξιά) από το Σχήμα 2.3}{figure.2.4}{}}
\citation{paper3}
\@writefile{toc}{\contentsline {subsection}{\numberline {2.3.1}Intersection γραφήματα και Clique trees}{14}{subsection.2.3.1}}
\citation{paper3}
\@writefile{toc}{\contentsline {subsection}{\numberline {2.3.2}Σχέσεις μεταξύ των chordal γραφημάτων και του δενδροπλάτους}{15}{subsection.2.3.2}}
\@writefile{toc}{\contentsline {section}{\numberline {2.4}Elimination Game}{16}{section.2.4}}
\citation{paper16}
\@writefile{lof}{\contentsline {figure}{\numberline {2.5}{\ignorespaces Αριστερά: Με μαύρες ακμές είναι το αρχικό γράφημα. Με (i) συμβολίζουμε την σειρά που επιλέξαμε τις κορυφές για να παίξουμε το elimination game. Στην αρχή διαλέξαμε την κορυφή $a$ και για αυτό προστέθηκε η fill edge(η κόκκινη ακμή). Δεξιά: Είναι το elimination tree που προκύπτει αν παίξουμε το elimination game με την σειρά που φαίνεται στα αριστερά.}}{18}{figure.2.5}}
\newlabel{fig:example}{{2.5}{18}{Αριστερά: Με μαύρες ακμές είναι το αρχικό γράφημα. Με (i) συμβολίζουμε την σειρά που επιλέξαμε τις κορυφές για να παίξουμε το elimination game. Στην αρχή διαλέξαμε την κορυφή $a$ και για αυτό προστέθηκε η fill edge(η κόκκινη ακμή). Δεξιά: Είναι το elimination tree που προκύπτει αν παίξουμε το elimination game με την σειρά που φαίνεται στα αριστερά}{figure.2.5}{}}
\citation{paper1}
\@writefile{toc}{\contentsline {section}{\numberline {2.5}Διαχωριστής}{19}{section.2.5}}
\citation{paper1}
\citation{paper12}
\citation{paper13}
\citation{paper12}
\citation{paper5}
\citation{paper1}
\citation{paper14}
\citation{paper1}
\@writefile{toc}{\contentsline {chapter}{\numberline {3}Αλγόριθμοι για το δενδροπλάτος}{24}{chapter.3}}
\@writefile{lof}{\addvspace {10\p@ }}
\@writefile{lot}{\addvspace {10\p@ }}
\@writefile{toc}{\contentsline {section}{\numberline {3.1}Εισαγωγή στους προσεγγιστικούς αλγορίθμους}{24}{section.3.1}}
\citation{paper1}
\@writefile{toc}{\contentsline {section}{\numberline {3.2}Πολυωνυμικός προσεγγιστικός αλγόριθμος}{25}{section.3.2}}
\citation{paper1}
\citation{paper1}
\@writefile{toc}{\contentsline {section}{\numberline {3.3}FPT προσεγγιστικός αλγόριθμος}{27}{section.3.3}}
\citation{paper12}
\citation{paper13}
\citation{paper12}
\citation{paper7}
\@writefile{toc}{\contentsline {section}{\numberline {3.4}Περισσότεροι αλγόριθμοι για το δενδροπλάτος}{29}{section.3.4}}
\bibstyle{plain}
\bibdata{bibliography}
\bibcite{paper1}{1}
\bibcite{paper2}{2}
\bibcite{paper3}{3}
\bibcite{paper4}{4}
\bibcite{paper5}{5}
\bibcite{paper6}{6}
\bibcite{paper7}{7}
\bibcite{paper8}{8}
\bibcite{paper9}{9}
\bibcite{paper10}{10}
\bibcite{paper11}{11}
\bibcite{paper12}{12}
\bibcite{paper13}{13}
\bibcite{paper14}{14}
\bibcite{paper15}{15}
\bibcite{paper16}{16}
